{
  "cviceni": {
    "version": {
      "global": "<%= version %>",
      "content": 1
    },
    "katalog": ["test"],
    "language": "cs",
    "slug": "komu-psal-fucik-rtjf",
    "nazev": "Komu psal Fučík?",
    "autor": [
      "Čeněk Pýcha"
    ],
    "klicovaSlova": [
      "válka",
      "odboj",
      "literatura",
      "komunismus",
      "politika",
      "analýza textu",
      "historický význam"
    ],
    "anotace": {
      "ucitel": "Žáci se seznámí s Reportáží psanou na oprátce a postavou Julia Fučíka. Analýza krátké ukázky se zaměřuje na otázku, komu byl text určen. Směřuje žáky k tomu, aby přemýšleli o žánrové charakteristice Reportáže. Právě charakteristika žánru vede žáky k základní interpretaci textu.",
      "verejna": "Je Reportáž, psaná na oprátce opravdu reportáž? Nebo milostný dopis? Nebo politická deklarace? Napsal ji Fučík opravdu na oprátce? A jakou roli v tom hrála jeho manželka Gusta? Ověřte si to na vlastní oči."
    },
    "trvani": 36,
    "funkce": [
      "lupa",
      "cteni",
      "text",
      "text-editor",
      "tagy",
      "svg",
      "kresleni"
    ],
    "pdf": {
      "doporucenyPostup": "komu-psal-fucik-rtjf.pdf"
    },
    "uvodniObrazek": "komu-psal-fucik-rtjf/pic-00-1024h.jpg",
    "id": 86
  },
  "slajd": [
    {
      "class": [
        "half-slide-previous"
      ],
      "zadani": {
        "hlavni": " Přečtěte si text.",
        "rozsirujici": ""
      },
      "napoveda": {
        "aktivity": [
          "lupa",
          "cteni"
        ],
        "text": "Při kliknutí levým tlačítkem do obrazu lupa přiblíží část obrazu ve výřezu."
      },
      "media": {
        "nastaveni": {
          "vzhled": "normalni",
          "layout": "vertikalni"
        },
        "soubory": [
          {
            "soubor": "komu-psal-fucik-rtjf/pic-04-1280w.jpg",
            "popisek": "Julius Fučík: Reportáž psaná na oprátce. První kritické okomentované vydání. Praha Torst 1995."
          }
        ],
        "galerie": [
          {
            "soubor": "komu-psal-fucik-rtjf/pic-00-1024h.jpg",
            "popisek": "Motáky Reportáže, psané na oprátce. Zdroj: Archiv Národního muzea"
          },
          {
            "soubor": "komu-psal-fucik-rtjf/pic-01-1024h.jpg",
            "popisek": "Motáky Reportáže, psané na oprátce. Zdroj: Archiv Národního muzea"
          },
          {
            "soubor": "komu-psal-fucik-rtjf/pic-02-1024h.jpg",
            "popisek": "Motáky Reportáže, psané na oprátce. Zdroj: Archiv Národního muzea"
          },
          {
            "soubor": "komu-psal-fucik-rtjf/pic-03-1024h.jpg",
            "popisek": "Motáky Reportáže, psané na oprátce. Zdroj: Archiv Národního muzea"
          }
        ]
      }
    },
    {
      "class": [
        "half-slide-active"
      ],
      "zadani": {
        "hlavni": "Označte vhodné klíčové slovo.",
        "rozsirujici": "Označte jen ta klíčová slova, která podle vás správně vystihují žánr textu."
      },
      "napoveda": {
        "aktivity": [
          "tagy"
        ],
        "text": "Kliknutím označíte jedno i více klíčových slov. Opětovným kliknutím výběr zrušíte."
      },
      "klicovaSlova": {
        "klicovaSlova": [
          {
            "id": "klicova-slova-1",
            "funkce": "selekce+",
            "tagy": [
              {
                "id": 1,
                "text": "milostný dopis"
              },
              {
                "id": 2,
                "text": "reportáž"
              },
              {
                "id": 3,
                "text": "politický komentář"
              },
              {
                "id": 4,
                "text": "esej"
              },
              {
                "id": 5,
                "text": "román"
              },
              {
                "id": 6,
                "text": "deník"
              }
            ]
          }
        ]
      }
    },
    {
      "zadani": {
        "hlavni": "Označte pasáže textu, které charakterizují Gustu Fučíkovou.",
        "rozsirujici": ""
      },
      "napoveda": {
        "aktivity": ["svg"],
        "text": "Tahem myši levým tlačítkem kreslíte do obrazu. Nakliknutím na nakreslený tvar pravým tlačítkem otevřete menu s nabídkou úkonů: (T) doplnit textový komentář, (X) smazat nakliknutý objekt."
      },
      "svg": {
        "soubory": [
          {
            "id": "svg-1",
            "barvy": ["blue"],
            "soubor": "komu-psal-fucik-rtjf/pic-04-1280w.jpg",
            "funkce": [
              "kresleni"
            ]
          }
        ]
      },
      "popisky": [
        "Julius Fučík: Reportáž psaná na oprátce. První kritické okomentované vydání. Praha Torst 1995."
      ]
    },
    {
      "class": [
        "half-slide-previous"
      ],
      "zadani": {
        "hlavni": "Označte pasáže, ve kterých je charakterizován vztah Gusty a Julia Fučíkových.",
        "rozsirujici": ""
      },
      "napoveda": {
        "aktivity": ["svg"],
        "text": "Tahem myši levým tlačítkem kreslíte do obrazu. Nakliknutím na nakreslený tvar pravým tlačítkem otevřete menu s nabídkou úkonů: (T) doplnit textový komentář, (X) smazat nakliknutý objekt."
      },
      "svg": {
        "soubory": [
          {
            "id": "svg-2",
            "duplikovat": ["svg-1"],
            "soubor": "komu-psal-fucik-rtjf/pic-04-1280w.jpg",
            "barvy": ["red"],
            "funkce": [
              "kresleni"
            ]
          }
        ]
      },
      "popisky": [
        "Julius Fučík: Reportáž psaná na oprátce. První kritické okomentované vydání. Praha Torst 1995."
      ]
    },
    {
      "class": [
        "half-slide-active",
        "half-slide-previous"
      ],
      "zadani": {
        "hlavni": "Zamyslete se znovu nad žánrem.",
        "rozsirujici": "Vyberte z nabídky jen <b>jedno</b> klíčové slovo, které podle vás správně vystihuje žánr textu."
      },
      "napoveda": {
        "aktivity": [
          "tagy"
        ],
        "text": "Kliknutím označíte jedno i více klíčových slov. Opětovným kliknutím výběr zrušíte."
      },
      "klicovaSlova": {
        "klicovaSlova": [
          {
            "id": "klicova-slova-2",
            "funkce": "selekce-",
            "tagy": [],
            "inherit": {
              "onInit": true,
              "from": [
                "klicova-slova-1"
              ]
            }
          }
        ]
      }
    },
    {
      "class": [
        "half-slide-active"
      ],
      "zadani": {
        "hlavni": "Zamyslete se nad tím, komu Fučík psal.",
        "rozsirujici": "Využijte vaše vymezení žánru."
      },
      "napoveda": {
        "aktivity": [
          "text"
        ],
        "text": "Do boxu pro text zapisujete odpověď na otázku, nebo jiný komentář (dle zadání)."
      },
      "uzivatelskyText": {
        "otazky": [
          {
            "id": "text-1",
            "zadani": "",
            "instrukce": "Myslím si, že…",
            "minDelka": 10,
            "maxDelka": 999
          }
        ]
      }
    }
  ]
}
